{
 "orderNumber": "E-381416-033856776", 
 "accessCodeExpiryTimestamp": "2016-11-29T03:38:26.260Z", 
 "verifierCompanyZip": "94538", 
 "verificationPurpose": "Collection or review of the employee's account", 
 "employerPhoneNumber": "650-681-5000", 
 "employeePhoneNumber": "412-976-7567", 
 "id": "9a00a7fa-24d1-46a1-a9e6-7d90d171e8c8", 
 "employeePhoneNumberType": "Mobile", 
 "verifierCompanyName": "Lending Club Inc", 
 "verifierUserId": "lcverifier1", 
 "employeeEmail": "test@test.com", 
 "verifierEmployerPhoneNumber": "879-676-7766", 
 "requestStatus": "Pending", 
 "employerAddress": "45500 Fremont Blvd, Fremont, CA 94538, USA", 
 "accessCode": "cb2a8827-55b3-440e-a4e0-73845ad74de3", 
 "employerWebsite": "http://tesla.com", 
 "verifierEmail": "lc1@test.com", 
 "encryptedEmployeeSsn": "AQECAHhDYlgl1Uj3fOR5R1Hjbssk+HFnrJq0fK9cxnxkrP4zKQAAAGkwZwYJKoZIhvcNAQcGoFowWAIBADBTBgkqhkiG9w0BBwEwHgYJYIZIAWUDBAEuMBEEDBNmd/Wq//02jCc5owIBEIAmI/8wsgrCAv25yMQD9By431B3ET8NQpt4cxN2Jhe50tytxIRfCa4=", 
 "verifierCompanyCountry": "USA", 
 "createdEpoc": 1479094706, 
 "verificationType": "EmploymentAndIncome", 
 "companyPlaceId": "ChIJ1Qu-hf7Gj4ARSMS6YWABHmo", 
 "employeeSocialLastFour": "8676", 
 "verifierCompanyCity": "San Jose", 
 "verifierFirstName": "lcverifier", 
 "employeeLastName": "test", 
 "verifierLastName": "test", 
 "created": "2016-11-14T03:38:26.261Z", 
 "employerFaxNumber": "789-678-7687", 
 "employeeFirstName": "Tesla", 
 "verifierCompanyPhone": "312-292-7466", 
 "verifierCompanyStreetAddress": "4205 South ave ", 
 "verifierCompanyState": "California", 
 "employerEmail": "tesla@tesla.com", 
 "employerName": "Tesla Factory"
}
